Modeling For Data Science
…
Adding missing grouping variables: `date`, `season`
`summarise()` has grouped output by 'date'. You can override using the
`.groups` argument.

agg_bike_summaries

$general
# A tibble: 353 × 7
# Groups:   date [353]
   date       season mean_rented_bike_count median_rented_bike_count
   <date>     <fct>                   <dbl>                    <dbl>
 1 2017-12-01 Winter                   9539                     9539
 2 2017-12-02 Winter                   8523                     8523
 3 2017-12-03 Winter                   7222                     7222
 4 2017-12-04 Winter                   8729                     8729
 5 2017-12-05 Winter                   8307                     8307
 6 2017-12-06 Winter                   6669                     6669
 7 2017-12-07 Winter                   8549                     8549
 8 2017-12-08 Winter                   8032                     8032
 9 2017-12-09 Winter                   7233                     7233
10 2017-12-10 Winter                   3453                     3453
# ℹ 343 more rows
# ℹ 3 more variables: var_rented_bike_count <dbl>, sd_rented_bike_count <dbl>,
#   IQR_rented_bike_count <dbl>
…
test_metrics

# A tibble: 2 × 4
  .metric .estimator .estimate .config             
  <chr>   <chr>          <dbl> <chr>               
1 rmse    standard    2912.    Preprocessor1_Model1
2 rsq     standard       0.915 Preprocessor1_Model1

final_model

# A tibble: 29 × 5
   term                     estimate std.error statistic    p.value
   <chr>                       <dbl>     <dbl>     <dbl>      <dbl>
 1 (Intercept)                13542.     2912.     4.65  0.00000553
 2 total_rainfall_mm_poly_1  -27929.     6790.    -4.11  0.0000540 
 3 total_rainfall_mm_poly_2   12906.     3579.     3.61  0.000379  
 4 total_snowfall_cm_poly_1   -3376.     3307.    -1.02  0.308     
 5 total_snowfall_cm_poly_2   -1028.     3160.    -0.325 0.745     
 6 avg_temp_c_poly_1         -23459.    80966.    -0.290 0.772     
 7 avg_temp_c_poly_2          -7556.    16890.    -0.447 0.655     
 8 avg_humidity_perc_poly_1  -46267.    28607.    -1.62  0.107     
 9 avg_humidity_perc_poly_2   -2790.     6657.    -0.419 0.675     
10 avg_windspeed_ms_poly_1    -5287.     3322.    -1.59  0.113     
# ℹ 19 more rows
